PMWGen/PMWGen.sim/sim_1/behav/xsim/waves.vcd
$date
   Fri Dec 12 18:39:28 2025
$end
$version
  2022.1
$end
$timescale
  1ps
$end
$scope module tb_top_system $end
$var reg 1 ! clk $end
$var reg 1 " rst_n $end
$var reg 1 # tb_mosi $end
$var wire 1 $ tb_miso $end
$var reg 1 % sclk $end
$var reg 1 & cs_n $end
$var wire 1 ' pwm_out $end
$var reg 8 ( counter_lsb [7:0] $end
$scope module dut $end
$var wire 1 ) clk $end
$var wire 1 * rst_n $end
$var wire 1 + sclk $end
$var wire 1 , cs_n $end
$var wire 1 - miso $end
$var wire 1 $ mosi $end
$var wire 1 ' pwm_out $end
$var wire 1 . byte_sync $end
$var wire 8 / data_in [7:0] $end
$var wire 8 0 data_out [7:0] $end
$var wire 1 1 read $end
$var wire 1 2 write $end
$var wire 6 3 addr [5:0] $end
$var wire 8 4 data_read [7:0] $end
$var wire 8 5 data_write [7:0] $end
$var wire 16 6 counter_val [15:0] $end
$var wire 16 7 period [15:0] $end
$var wire 1 8 en $end
$var wire 1 9 count_reset $end
$var wire 1 : upnotdown $end
$var wire 8 ; prescale [7:0] $end
$var wire 1 < pwm_en $end
$var wire 8 = functions [7:0] $end
$var wire 16 > compare1 [15:0] $end
$var wire 16 ? compare2 [15:0] $end
$scope module i_spi_bridge $end
$var wire 1 ) clk $end
$var wire 1 * rst_n $end
$var wire 1 + sclk $end
$var wire 1 , cs_n $end
$var wire 1 - mosi $end
$var reg 1 @ miso $end
$var reg 1 A byte_sync $end
$var reg 8 B data_in [7:0] $end
$var wire 8 0 data_out [7:0] $end
$var reg 8 C shift_in [7:0] $end
$var reg 8 D shift_out [7:0] $end
$var reg 3 E bit_cnt [2:0] $end
$var reg 1 F sclk_prev $end
$var wire 1 G sclk_r $end
$var wire 1 H sclk_f $end
$upscope $end
$scope module i_instr_dcd $end
$var wire 1 ) clk $end
$var wire 1 * rst_n $end
$var wire 1 . byte_sync $end
$var wire 8 / data_in [7:0] $end
$var wire 8 0 data_out [7:0] $end
$var reg 1 I read $end
$var reg 1 J write $end
$var reg 6 K addr [5:0] $end
$var wire 8 4 data_read [7:0] $end
$var reg 8 L data_write [7:0] $end
$var reg 1 M first_byte $end
$var reg 1 N rw_flag $end
$var reg 6 O latched_addr [5:0] $end
$upscope $end
$scope module i_regs $end
$var wire 1 ) clk $end
$var wire 1 * rst_n $end
$var wire 1 1 read $end
$var wire 1 2 write $end
$var wire 6 3 addr [5:0] $end
$var reg 8 P data_read [7:0] $end
$var wire 8 5 data_write [7:0] $end
$var wire 16 6 counter_val [15:0] $end
$var reg 16 Q period [15:0] $end
$var reg 1 R en $end
$var reg 1 S count_reset $end
$var reg 1 T upnotdown $end
$var reg 8 U prescale [7:0] $end
$var reg 1 V pwm_en $end
$var reg 8 W functions [7:0] $end
$var reg 16 X compare1 [15:0] $end
$var reg 16 Y compare2 [15:0] $end
$var reg 2 Z reset_cnt [1:0] $end
$upscope $end
$scope module i_counter $end
$var wire 1 ) clk $end
$var wire 1 * rst_n $end
$var reg 16 [ count_val [15:0] $end
$var wire 16 7 period [15:0] $end
$var wire 1 8 en $end
$var wire 1 9 count_reset $end
$var wire 1 : upnotdown $end
$var wire 8 ; prescale [7:0] $end
$var reg 16 \ ps_cnt [15:0] $end
$upscope $end
$scope module i_pwm_gen $end
$var wire 1 ) clk $end
$var wire 1 * rst_n $end
$var wire 1 < pwm_en $end
$var wire 16 7 period [15:0] $end
$var wire 8 = functions [7:0] $end
$var wire 16 > compare1 [15:0] $end
$var wire 16 ? compare2 [15:0] $end
$var wire 16 6 count_val [15:0] $end
$var reg 1 ] pwm_out $end
$var wire 1 ^ align $end
$var wire 1 _ unaligned $end
$upscope $end
$upscope $end
$scope task apply_reset $end
$upscope $end
$scope task spi_transfer_byte $end
$var reg 8 ` tx [7:0] $end
$var reg 8 a rx [7:0] $end
$var integer 32 b i [31:0] $end
$upscope $end
$scope task spi_write_reg $end
$var reg 6 c addr [5:0] $end
$var reg 8 d data [7:0] $end
$var reg 8 e cmd [7:0] $end
$var reg 8 f dummy [7:0] $end
$upscope $end
$scope task spi_read_reg $end
$var reg 6 g addr [5:0] $end
$var reg 8 h data [7:0] $end
$var reg 8 i cmd [7:0] $end
$var reg 8 j rx [7:0] $end
$upscope $end
$scope task check_pwm_duty $end
$var integer 32 k period_val [31:0] $end
$var integer 32 l high_per_period [31:0] $end
$var integer 32 m num_periods [31:0] $end
$var integer 32 n total_ticks [31:0] $end
$var integer 32 o high_count [31:0] $end
$var integer 32 p i [31:0] $end
$var integer 32 q exp [31:0] $end
$upscope $end
$upscope $end
$enddefinitions $end
#0
$dumpvars
0!
0"
0#
0$
0%
1&
0'
bx (
0)
0*
0+
1,
0-
0.
b0 /
b0 0
01
02
b0 3
b0 4
b0 5
b0 6
b0 7
08
09
1:
b0 ;
0<
b0 =
b0 >
b0 ?
0@
0A
b0 B
b0 C
b0 D
b0 E
0F
0G
0H
0I
0J
b0 K
b0 L
1M
0N
b0 O
b0 P
b0 Q
0R
0S
1T
b0 U
0V
b0 W
b0 X
b0 Y
b0 Z
b0 [
b0 \
0]
0^
0_
bx `
bx a
bx b
bx c
bx d
bx e
bx f
bx g
bx h
bx i
bx j
bx k
bx l
bx m
bx n
bx o
bx p
bx q
$end
#50000
1!
1)
#100000
0!
0)
#150000
1!
1)
#200000
0!
0)
#250000
1!
1)
#300000
0!
0)
#350000
1!
1)
#400000
0!
0)
#450000
1!
1)
#500000
0!
1"
0)
1*
#550000
1!
1)
#600000
0!
0)
#650000
1!
1)
#700000
0!
0)
#750000
1!
1)
b0 c
b111 d
b11000000 e
#800000
0!
1#
0&
0)
0,
1-
b11000000 `
b0 a
b111 b
#850000
1!
1%
1)
1+
b1 C
b1 E
1G
#900000
0!
0%
0)
0+
0G
b110 b
#950000
1!
1%
1)
1+
b11 C
b10 E
1G
#1000000
0!
0#
0%
0)
0+
0-
0G
b101 b
#1050000
1!
1%
1)
1+
b110 C
b11 E
1G
#1100000
0!
0%
0)
0+
0G
b100 b
#1150000
1!
1%
1)
1+
b1100 C
b100 E
1G
#1200000
0!
0%
0)
0+
0G
b11 b
#1250000
1!
1%
1)
1+
b11000 C
b101 E
1G
#1300000
0!
0%
0)
0+
0G
b10 b
#1350000
1!
1%
1)
1+
b110000 C
b110 E
1G
#1400000
0!
0%
0)
0+
0G
b1 b
#1450000
1!
1%
1)
1+
b1100000 C
b111 E
1G
#1500000
0!
0%
0)
0+
0G
b0 b
#1550000
1!
1%
1)
1+
1.
b11000000 /
1A
b11000000 B
b11000000 C
b0 E
1G
#1600000
0!
0%
0)
0+
0G
b111 `
b111 b
b0 f
#1650000
1!
1%
1)
1+
0.
0A
b10000000 C
b1 E
1G
0M
1N
#1700000
0!
0%
0)
0+
0G
b110 b
#1750000
1!
1%
1)
1+
b0 C
b10 E
1G
#1800000
0!
0%
0)
0+
0G
b101 b
#1850000
1!
1%
1)
1+
b11 E
1G
#1900000
0!
0%
0)
0+
0G
b100 b
#1950000
1!
1%
1)
1+
b100 E
1G
#2000000
0!
0%
0)
0+
0G
b11 b
#2050000
1!
1%
1)
1+
b101 E
1G
#2100000
0!
1#
0%
0)
0+
1-
0G
b10 b
#2150000
1!
1%
1)
1+
b1 C
b110 E
1G
#2200000
0!
0%
0)
0+
0G
b1 b
#2250000
1!
1%
1)
1+
b11 C
b111 E
1G
#2300000
0!
0%
0)
0+
0G
b0 b
#2350000
1!
1%
1)
1+
1.
b111 /
1A
b111 B
b111 C
b0 E
1G
#2400000
0!
0%
0)
0+
0G
b11111111111111111111111111111111 b
#2450000
1!
1&
1)
1,
0.
12
b111 5
0A
1J
b111 L
1M
#2500000
0!
0)
#2550000
1!
1)
b111 0
02
b111 4
b111 7
0J
b111 P
b111 Q
#2600000
0!
0)
#2650000
1!
1)
b111 D
b1010 c
b0 d
b11001010 e
#2700000
0!
0&
0)
0,
b11001010 `
b111 b
#2750000
1!
1%
1)
1+
b1111 C
b1 E
1G
#2800000
0!
0%
0)
0+
0G
b110 b
#2850000
1!
1%
1)
1+
b11111 C
b10 E
1G
#2900000
0!
0#
0%
0)
0+
0-
0G
b101 b
#2950000
1!
1%
1)
1+
b111110 C
b11 E
1G
#3000000
0!
0%
0)
0+
0G
b100 b
#3050000
1!
1%
1)
1+
b1111100 C
b100 E
1G
#3100000
0!
1#
0%
0)
0+
1-
0G
b11 b
#3150000
1!
1%
1)
1+
b11111001 C
b101 E
1G
#3200000
0!
0#
0%
0)
0+
0-
0G
b10 b
#3250000
1!
1%
1)
1+
b11110010 C
b110 E
1G
#3300000
0!
1#
0%
0)
0+
1-
0G
b1 b
#3350000
1!
1%
1)
1+
b11100101 C
b111 E
1G
#3400000
0!
0#
0%
0)
0+
0-
0G
b0 b
#3450000
1!
1%
1)
1+
1.
b11001010 /
1A
b11001010 B
b11001010 C
b0 E
1G
#3500000
0!
0%
0)
0+
0G
b0 `
b111 b
#3550000
1!
1%
1)
1+
0.
b0 0
b1010 3
b0 4
0A
b10010100 C
b1 E
1G
b1010 K
0M
b1010 O
b0 P
#3600000
0!
0%
0)
0+
0G
b110 b
#3650000
1!
1%
1)
1+
b101000 C
b10 E
1G
#3700000
0!
0%
0)
0+
0G
b101 b
#3750000
1!
1%
1)
1+
b1010000 C
b11 E
1G
#3800000
0!
0%
0)
0+
0G
b100 b
#3850000
1!
1%
1)
1+
b10100000 C
b100 E
1G
#3900000
0!
0%
0)
0+
0G
b11 b
#3950000
1!
1%
1)
1+
b1000000 C
b101 E
1G
#4000000
0!
0%
0)
0+
0G
b10 b
#4050000
1!
1%
1)
1+
b10000000 C
b110 E
1G
#4100000
0!
0%
0)
0+
0G
b1 b
#4150000
1!
1%
1)
1+
b0 C
b111 E
1G
#4200000
0!
0%
0)
0+
0G
b0 b
#4250000
1!
1%
1)
1+
1.
b0 /
1A
b0 B
b0 D
b0 E
1G
#4300000
0!
0%
0)
0+
0G
b11111111111111111111111111111111 b
#4350000
1!
1&
1)
1,
0.
12
b0 5
0A
1J
b0 L
1M
#4400000
0!
0)
#4450000
1!
1)
02
0J
#4500000
0!
0)
#4550000
1!
1)
b11 c
b11 d
b11000011 e
#4600000
0!
1#
0&
0)
0,
1-
b11000011 `
b111 b
#4650000
1!
1%
1)
1+
b1 C
b1 E
1G
#4700000
0!
0%
0)
0+
0G
b110 b
#4750000
1!
1%
1)
1+
b11 C
b10 E
1G
#4800000
0!
0#
0%
0)
0+
0-
0G
b101 b
#4850000
1!
1%
1)
1+
b110 C
b11 E
1G
#4900000
0!
0%
0)
0+
0G
b100 b
#4950000
1!
1%
1)
1+
b1100 C
b100 E
1G
#5000000
0!
0%
0)
0+
0G
b11 b
#5050000
1!
1%
1)
1+
b11000 C
b101 E
1G
#5100000
0!
0%
0)
0+
0G
b10 b
#5150000
1!
1%
1)
1+
b110000 C
b110 E
1G
#5200000
0!
1#
0%
0)
0+
1-
0G
b1 b
#5250000
1!
1%
1)
1+
b1100001 C
b111 E
1G
#5300000
0!
0%
0)
0+
0G
b0 b
#5350000
1!
1%
1)
1+
1.
b11000011 /
1A
b11000011 B
b11000011 C
b0 E
1G
#5400000
0!
0#
0%
0)
0+
0-
0G
b11 `
b111 b
#5450000
1!
1%
1)
1+
0.
b11 3
0A
b10000110 C
b1 E
1G
b11 K
0M
b11 O
b0 P
#5500000
0!
0%
0)
0+
0G
b110 b
#5550000
1!
1%
1)
1+
b1100 C
b10 E
1G
#5600000
0!
0%
0)
0+
0G
b101 b
#5650000
1!
1%
1)
1+
b11000 C
b11 E
1G
#5700000
0!
0%
0)
0+
0G
b100 b
#5750000
1!
1%
1)
1+
b110000 C
b100 E
1G
#5800000
0!
0%
0)
0+
0G
b11 b
#5850000
1!
1%
1)
1+
b1100000 C
b101 E
1G
#5900000
0!
0%
0)
0+
0G
b10 b
#5950000
1!
1%
1)
1+
b11000000 C
b110 E
1G
#6000000
0!
1#
0%
0)
0+
1-
0G
b1 b
#6050000
1!
1%
1)
1+
b10000001 C
b111 E
1G
#6100000
0!
0%
0)
0+
0G
b0 b
#6150000
1!
1%
1)
1+
1.
b11 /
1A
b11 B
b11 C
b0 E
1G
#6200000
0!
0%
0)
0+
0G
b11111111111111111111111111111111 b
#6250000
1!
1&
1)
1,
0.
12
b11 5
0A
1J
b11 L
1M
#6300000
0!
0)
#6350000
1!
1)
b11 0
02
b11 4
b11 >
0J
b11 P
b11 X
#6400000
0!
0)
#6450000
1!
1)
b11 D
b10 c
b1 d
b11000010 e
#6500000
0!
0&
0)
0,
b11000010 `
b111 b
#6550000
1!
1%
1)
1+
b111 C
b1 E
1G
#6600000
0!
0%
0)
0+
0G
b110 b
#6650000
1!
1%
1)
1+
b1111 C
b10 E
1G
#6700000
0!
0#
0%
0)
0+
0-
0G
b101 b
#6750000
1!
1%
1)
1+
b11110 C
b11 E
1G
#6800000
0!
0%
0)
0+
0G
b100 b
#6850000
1!
1%
1)
1+
b111100 C
b100 E
1G
#6900000
0!
0%
0)
0+
0G
b11 b
#6950000
1!
1%
1)
1+
b1111000 C
b101 E
1G
#7000000
0!
0%
0)
0+
0G
b10 b
#7050000
1!
1%
1)
1+
b11110000 C
b110 E
1G
#7100000
0!
1#
0%
0)
0+
1-
0G
b1 b
#7150000
1!
1%
1)
1+
b11100001 C
b111 E
1G
#7200000
0!
0#
0%
0)
0+
0-
0G
b0 b
#7250000
1!
1%
1)
1+
1.
b11000010 /
1A
b11000010 B
b11000010 C
b0 E
1G
#7300000
0!
0%
0)
0+
0G
b1 `
b111 b
#7350000
1!
1%
1)
1+
0.
b0 0
b10 3
b0 4
0A
b10000100 C
b1 E
1G
b10 K
0M
b10 O
b0 P
#7400000
0!
0%
0)
0+
0G
b110 b
#7450000
1!
1%
1)
1+
b1000 C
b10 E
1G
#7500000
0!
0%
0)
0+
0G
b101 b
#7550000
1!
1%
1)
1+
b10000 C
b11 E
1G
#7600000
0!
0%
0)
0+
0G
b100 b
#7650000
1!
1%
1)
1+
b100000 C
b100 E
1G
#7700000
0!
0%
0)
0+
0G
b11 b
#7750000
1!
1%
1)
1+
b1000000 C
b101 E
1G
#7800000
0!
0%
0)
0+
0G
b10 b
#7850000
1!
1%
1)
1+
b10000000 C
b110 E
1G
#7900000
0!
0%
0)
0+
0G
b1 b
#7950000
1!
1%
1)
1+
b0 C
b111 E
1G
#8000000
0!
1#
0%
0)
0+
1-
0G
b0 b
#8050000
1!
1%
1)
1+
1.
b1 /
1A
b1 B
b1 C
b0 D
b0 E
1G
#8100000
0!
0%
0)
0+
0G
b11111111111111111111111111111111 b
#8150000
1!
1&
1)
1,
0.
12
b1 5
0A
1J
b1 L
1M
#8200000
0!
0)
#8250000
1!
1)
b1 0
02
b1 4
18
0J
b1 P
1R
#8300000
0!
0)
#8350000
1!
1)
b1 6
b1 D
b1 P
b1 [
b1100 c
b11001100 e
#8400000
0!
0&
0)
0,
b11001100 `
b111 b
#8450000
1!
1%
1)
1+
b10 6
b11 C
b1 E
1G
b1 P
b10 [
#8500000
0!
0%
0)
0+
0G
b110 b
#8550000
1!
1%
1)
1+
b11 6
b111 C
b10 E
1G
b1 P
b11 [
#8600000
0!
0#
0%
0)
0+
0-
0G
b101 b
#8650000
1!
1%
1)
1+
b100 6
b1110 C
b11 E
1G
b1 P
b100 [
#8700000
0!
0%
0)
0+
0G
b100 b
#8750000
1!
1%
1)
1+
b101 6
b11100 C
b100 E
1G
b1 P
b101 [
#8800000
0!
1#
0%
0)
0+
1-
0G
b11 b
#8850000
1!
1%
1)
1+
b110 6
b111001 C
b101 E
1G
b1 P
b110 [
#8900000
0!
0%
0)
0+
0G
b10 b
#8950000
1!
1%
1)
1+
b111 6
b1110011 C
b110 E
1G
b1 P
b111 [
#9000000
0!
0#
0%
0)
0+
0-
0G
b1 b
#9050000
1!
1%
1)
1+
b0 6
b11100110 C
b111 E
1G
b1 P
b0 [
#9100000
0!
0%
0)
0+
0G
b0 b
#9150000
1!
1%
1)
1+
1.
b11001100 /
b1 6
1A
b11001100 B
b11001100 C
b0 E
1G
b1 P
b1 [
#9200000
0!
0%
0)
0+
0G
b1 `
b111 b
#9250000
1!
1%
1)
1+
0.
b0 0
b1100 3
b0 4
b10 6
0A
b10011000 C
b1 E
1G
b1100 K
0M
b1100 O
b0 P
b10 [
#9300000
0!
0%
0)
0+
0G
b110 b
#9350000
1!
1%
1)
1+
b11 6
b110000 C
b10 E
1G
b0 P
b11 [
#9400000
0!
0%
0)
0+
0G
b101 b
#9450000
1!
1%
1)
1+
b100 6
b1100000 C
b11 E
1G
b0 P
b100 [
#9500000
0!
0%
0)
0+
0G
b100 b
#9550000
1!
1%
1)
1+
b101 6
b11000000 C
b100 E
1G
b0 P
b101 [
#9600000
0!
0%
0)
0+
0G
b11 b
#9650000
1!
1%
1)
1+
b110 6
b10000000 C
b101 E
1G
b0 P
b110 [
#9700000
0!
0%
0)
0+
0G
b10 b
#9750000
1!
1%
1)
1+
b111 6
b0 C
b110 E
1G
b0 P
b111 [
#9800000
0!
0%
0)
0+
0G
b1 b
#9850000
1!
1%
1)
1+
b0 6
b111 E
1G
b0 P
b0 [
#9900000
0!
1#
0%
0)
0+
1-
0G
b0 b
#9950000
1!
1%
1)
1+
1.
b1 /
b1 6
1A
b1 B
b1 C
b0 D
b0 E
1G
b0 P
b1 [
#10000000
0!
0%
0)
0+
0G
b11111111111111111111111111111111 b
#10050000
1!
1&
1)
1,
0.
12
b10 6
0A
1J
1M
b0 P
b10 [
#10100000
0!
0)
#10150000
1!
1)
b1 0
02
b1 4
b11 6
1<
0J
b1 P
1V
b11 [
#10200000
0!
0)
#10250000
1!
1)
b100 6
b1 D
b1 P
b100 [
b1101 c
b0 d
b11001101 e
#10300000
0!
0&
0)
0,
b11001101 `
b111 b
#10350000
1!
1%
1)
1+
b101 6
b11 C
b1 E
1G
b1 P
b101 [
#10400000
0!
0%
0)
0+
0G
b110 b
#10450000
1!
1%
1)
1+
b110 6
b111 C
b10 E
1G
b1 P
b110 [
#10500000
0!
0#
0%
0)
0+
0-
0G
b101 b
#10550000
1!
1%
1)
1+
b111 6
b1110 C
b11 E
1G
b1 P
b111 [
#10600000
0!
0%
0)
0+
0G
b100 b
#10650000
1!
1%
1)
1+
b0 6
b11100 C
b100 E
1G
b1 P
b0 [
#10700000
0!
1#
0%
0)
0+
1-
0G
b11 b
#10750000
1!
1%
1'
1)
1+
b1 6
b111001 C
b101 E
1G
b1 P
b1 [
1]
#10800000
0!
0%
0)
0+
0G
b10 b
#10850000
1!
1%
1)
1+
b10 6
b1110011 C
b110 E
1G
b1 P
b10 [
#10900000
0!
0#
0%
0)
0+
0-
0G
b1 b
#10950000
1!
1%
1)
1+
b11 6
b11100110 C
b111 E
1G
b1 P
b11 [
#11000000
0!
1#
0%
0)
0+
1-
0G
b0 b
#11050000
1!
1%
1)
1+
1.
b11001101 /
b100 6
1A
b11001101 B
b11001101 C
b0 E
1G
b1 P
b100 [
#11100000
0!
0#
0%
0)
0+
0-
0G
b0 `
b111 b
#11150000
1!
1%
0'
1)
1+
0.
b0 0
b1101 3
b0 4
b101 6
0A
b10011010 C
b1 E
1G
b1101 K
0M
b1101 O
b0 P
b101 [
0]
#11200000
0!
0%
0)
0+
0G
b110 b
#11250000
1!
1%
1)
1+
b110 6
b110100 C
b10 E
1G
b0 P
b110 [
#11300000
0!
0%
0)
0+
0G
b101 b
#11350000
1!
1%
1)
1+
b111 6
b1101000 C
b11 E
1G
b0 P
b111 [
#11400000
0!
0%
0)
0+
0G
b100 b
#11450000
1!
1%
1)
1+
b0 6
b11010000 C
b100 E
1G
b0 P
b0 [
#11500000
0!
0%
0)
0+
0G
b11 b
#11550000
1!
1%
1'
1)
1+
b1 6
b10100000 C
b101 E
1G
b0 P
b1 [
1]
#11600000
0!
0%
0)
0+
0G
b10 b
#11650000
1!
1%
1)
1+
b10 6
b1000000 C
b110 E
1G
b0 P
b10 [
#11700000
0!
0%
0)
0+
0G
b1 b
#11750000
1!
1%
1)
1+
b11 6
b10000000 C
b111 E
1G
b0 P
b11 [
#11800000
0!
0%
0)
0+
0G
b0 b
#11850000
1!
1%
1)
1+
1.
b0 /
b100 6
1A
b0 B
b0 C
b0 D
b0 E
1G
b0 P
b100 [
#11900000
0!
0%
0)
0+
0G
b11111111111111111111111111111111 b
#11950000
1!
1&
0'
1)
1,
0.
12
b0 5
b101 6
0A
1J
b0 L
1M
b0 P
b101 [
0]
#12000000
0!
0)
#12050000
1!
1)
02
b110 6
0J
b0 P
b110 [
#12100000
0!
0)
#12150000
1!
1)
b111 6
b0 P
b111 [
b111 c
b1 d
b11000111 e
#12200000
0!
1#
0&
0)
0,
1-
b11000111 `
b111 b
#12250000
1!
1%
1)
1+
b0 6
b1 C
b1 E
1G
b0 P
b0 [
#12300000
0!
0%
0)
0+
0G
b110 b
#12350000
1!
1%
1'
1)
1+
b1 6
b11 C
b10 E
1G
b0 P
b1 [
1]
#12400000
0!
0#
0%
0)
0+
0-
0G
b101 b
#12450000
1!
1%
1)
1+
b10 6
b110 C
b11 E
1G
b0 P
b10 [
#12500000
0!
0%
0)
0+
0G
b100 b
#12550000
1!
1%
1)
1+
b11 6
b1100 C
b100 E
1G
b0 P
b11 [
#12600000
0!
0%
0)
0+
0G
b11 b
#12650000
1!
1%
1)
1+
b100 6
b11000 C
b101 E
1G
b0 P
b100 [
#12700000
0!
1#
0%
0)
0+
1-
0G
b10 b
#12750000
1!
1%
0'
1)
1+
b101 6
b110001 C
b110 E
1G
b0 P
b101 [
0]
#12800000
0!
0%
0)
0+
0G
b1 b
#12850000
1!
1%
1)
1+
b110 6
b1100011 C
b111 E
1G
b0 P
b110 [
#12900000
0!
0%
0)
0+
0G
b0 b
#12950000
1!
1%
1)
1+
1.
b11000111 /
b111 6
1A
b11000111 B
b11000111 C
b0 E
1G
b0 P
b111 [
#13000000
0!
0#
0%
0)
0+
0-
0G
b1 `
b111 b
#13050000
1!
1%
1)
1+
0.
b111 3
b0 6
0A
b10001110 C
b1 E
1G
b111 K
0M
b111 O
b0 P
b0 [
#13100000
0!
0%
0)
0+
0G
b110 b
#13150000
1!
1%
1'
1)
1+
b1 6
b11100 C
b10 E
1G
b0 P
b1 [
1]
#13200000
0!
0%
0)
0+
0G
b101 b
#13250000
1!
1%
1)
1+
b10 6
b111000 C
b11 E
1G
b0 P
b10 [
#13300000
0!
0%
0)
0+
0G
b100 b
#13350000
1!
1%
1)
1+
b11 6
b1110000 C
b100 E
1G
b0 P
b11 [
#13400000
0!
0%
0)
0+
0G
b11 b
#13450000
1!
1%
1)
1+
b100 6
b11100000 C
b101 E
1G
b0 P
b100 [
#13500000
0!
0%
0)
0+
0G
b10 b
#13550000
1!
1%
0'
1)
1+
b101 6
b11000000 C
b110 E
1G
b0 P
b101 [
0]
#13600000
0!
0%
0)
0+
0G
b1 b
#13650000
1!
1%
1)
1+
b110 6
b10000000 C
b111 E
1G
b0 P
b110 [
#13700000
0!
1#
0%
0)
0+
1-
0G
b0 b
#13750000
1!
1%
1)
1+
1.
b1 /
b111 6
1A
b1 B
b1 C
b0 E
1G
b0 P
b111 [
#13800000
0!
0%
0)
0+
0G
b11111111111111111111111111111111 b
#13850000
1!
1&
1)
1,
0.
12
b1 5
b0 6
0A
1J
b1 L
1M
b0 P
b0 [
#13900000
0!
0)
#13950000
1!
1'
1)
02
b1 6
19
0J
b0 P
1S
b1 Z
b1 [
1]
#14000000
0!
0)
#14050000
1!
1)
b0 6
b0 P
b10 Z
b0 [
b0 d
#14100000
0!
0&
0)
0,
b11000111 `
b111 b
#14150000
1!
1%
1)
1+
09
b11 C
b1 E
1G
0S
b0 Z
#14200000
0!
0%
0)
0+
0G
b110 b
#14250000
1!
1%
1)
1+
b1 6
b111 C
b10 E
1G
b0 P
b1 [
#14300000
0!
0#
0%
0)
0+
0-
0G
b101 b
#14350000
1!
1%
1)
1+
b10 6
b1110 C
b11 E
1G
b0 P
b10 [
#14400000
0!
0%
0)
0+
0G
b100 b
#14450000
1!
1%
1)
1+
b11 6
b11100 C
b100 E
1G
b0 P
b11 [
#14500000
0!
0%
0)
0+
0G
b11 b
#14550000
1!
1%
1)
1+
b100 6
b111000 C
b101 E
1G
b0 P
b100 [
#14600000
0!
1#
0%
0)
0+
1-
0G
b10 b
#14650000
1!
1%
0'
1)
1+
b101 6
b1110001 C
b110 E
1G
b0 P
b101 [
0]
#14700000
0!
0%
0)
0+
0G
b1 b
#14750000
1!
1%
1)
1+
b110 6
b11100011 C
b111 E
1G
b0 P
b110 [
#14800000
0!
0%
0)
0+
0G
b0 b
#14850000
1!
1%
1)
1+
1.
b11000111 /
b111 6
1A
b11000111 B
b11000111 C
b0 E
1G
b0 P
b111 [
#14900000
0!
0#
0%
0)
0+
0-
0G
b0 `
b111 b
#14950000
1!
1%
1)
1+
0.
b0 6
0A
b10001110 C
b1 E
1G
0M
b0 P
b0 [
#15000000
0!
0%
0)
0+
0G
b110 b
#15050000
1!
1%
1'
1)
1+
b1 6
b11100 C
b10 E
1G
b0 P
b1 [
1]
#15100000
0!
0%
0)
0+
0G
b101 b
#15150000
1!
1%
1)
1+
b10 6
b111000 C
b11 E
1G
b0 P
b10 [
#15200000
0!
0%
0)
0+
0G
b100 b
#15250000
1!
1%
1)
1+
b11 6
b1110000 C
b100 E
1G
b0 P
b11 [
#15300000
0!
0%
0)
0+
0G
b11 b
#15350000
1!
1%
1)
1+
b100 6
b11100000 C
b101 E
1G
b0 P
b100 [
#15400000
0!
0%
0)
0+
0G
b10 b
#15450000
1!
1%
0'
1)
1+
b101 6
b11000000 C
b110 E
1G
b0 P
b101 [
0]
#15500000
0!
0%
0)
0+
0G
b1 b
#15550000
1!
1%
1)
1+
b110 6
b10000000 C
b111 E
1G
b0 P
b110 [
#15600000
0!
0%
0)
0+
0G
b0 b
#15650000
1!
1%
1)
1+
1.
b0 /
b111 6
1A
b0 B
b0 C
b0 E
1G
b0 P
b111 [
#15700000
0!
0%
0)
0+
0G
b11111111111111111111111111111111 b
#15750000
1!
1&
1)
1,
0.
12
b0 5
b0 6
0A
1J
b0 L
1M
b0 P
b0 [
#15800000
0!
0)
#15850000
1!
1'
1)
02
b1 6
0J
b0 P
b1 [
1]
#15900000
0!
0)
#15950000
1!
1)
b10 6
b0 P
b10 [
b111 k
b100 l
b101 m
b101000 n
b0 o
b10100 q
#16000000
0!
0)
#16050000
1!
1)
b11 6
b0 P
b11 [
#16100000
0!
0)
#16150000
1!
1)
b100 6
b0 P
b100 [
#16200000
0!
0)
b0 p
#16250000
1!
0'
1)
b101 6
b0 P
b101 [
0]
b1 o
b1 p
#16300000
0!
0)
#16350000
1!
1)
b110 6
b0 P
b110 [
b10 p
#16400000
0!
0)
#16450000
1!
1)
b111 6
b0 P
b111 [
b11 p
#16500000
0!
0)
#16550000
1!
1)
b0 6
b0 P
b0 [
b100 p
#16600000
0!
0)
#16650000
1!
1'
1)
b1 6
b0 P
b1 [
1]
b101 p
#16700000
0!
0)
#16750000
1!
1)
b10 6
b0 P
b10 [
b10 o
b110 p
#16800000
0!
0)
#16850000
1!
1)
b11 6
b0 P
b11 [
b11 o
b111 p
#16900000
0!
0)
#16950000
1!
1)
b100 6
b0 P
b100 [
b100 o
b1000 p
#17000000
0!
0)
#17050000
1!
0'
1)
b101 6
b0 P
b101 [
0]
b101 o
b1001 p
#17100000
0!
0)
#17150000
1!
1)
b110 6
b0 P
b110 [
b1010 p
#17200000
0!
0)
#17250000
1!
1)
b111 6
b0 P
b111 [
b1011 p
#17300000
0!
0)
#17350000
1!
1)
b0 6
b0 P
b0 [
b1100 p
#17400000
0!
0)
#17450000
1!
1'
1)
b1 6
b0 P
b1 [
1]
b1101 p
#17500000
0!
0)
#17550000
1!
1)
b10 6
b0 P
b10 [
b110 o
b1110 p
#17600000
0!
0)
#17650000
1!
1)
b11 6
b0 P
b11 [
b111 o
b1111 p
#17700000
0!
0)
#17750000
1!
1)
b100 6
b0 P
b100 [
b1000 o
b10000 p
#17800000
0!
0)
#17850000
1!
0'
1)
b101 6
b0 P
b101 [
0]
b1001 o
b10001 p
#17900000
0!
0)
#17950000
1!
1)
b110 6
b0 P
b110 [
b10010 p
#18000000
0!
0)
#18050000
1!
1)
b111 6
b0 P
b111 [
b10011 p
#18100000
0!
0)
#18150000
1!
1)
b0 6
b0 P
b0 [
b10100 p
#18200000
0!
0)
#18250000
1!
1'
1)
b1 6
b0 P
b1 [
1]
b10101 p
#18300000
0!
0)
#18350000
1!
1)
b10 6
b0 P
b10 [
b1010 o
b10110 p
#18400000
0!
0)
#18450000
1!
1)
b11 6
b0 P
b11 [
b1011 o
b10111 p
#18500000
0!
0)
#18550000
1!
1)
b100 6
b0 P
b100 [
b1100 o
b11000 p
#18600000
0!
0)
#18650000
1!
0'
1)
b101 6
b0 P
b101 [
0]
b1101 o
b11001 p
#18700000
0!
0)
#18750000
1!
1)
b110 6
b0 P
b110 [
b11010 p
#18800000
0!
0)
#18850000
1!
1)
b111 6
b0 P
b111 [
b11011 p
#18900000
0!
0)
#18950000
1!
1)
b0 6
b0 P
b0 [
b11100 p
#19000000
0!
0)
#19050000
1!
1'
1)
b1 6
b0 P
b1 [
1]
b11101 p
#19100000
0!
0)
#19150000
1!
1)
b10 6
b0 P
b10 [
b1110 o
b11110 p
#19200000
0!
0)
#19250000
1!
1)
b11 6
b0 P
b11 [
b1111 o
b11111 p
#19300000
0!
0)
#19350000
1!
1)
b100 6
b0 P
b100 [
b10000 o
b100000 p
#19400000
0!
0)
#19450000
1!
0'
1)
b101 6
b0 P
b101 [
0]
b10001 o
b100001 p
#19500000
0!
0)
